Data Visualization notes - 19 Finding and accessing data
…
One measure of inflation is its effect on prices. Here is a table from Statistics Canada that reports over 1 million rows of data on this measure. Statistics Canada tables are an extreme version of “long” data, which usually require a lot of filtering to get just the rows you want. You will want to make use of dpylr functions summarize and count to study the structure of the data.

# Population and projection in a huge table with 2 million rows, 300 MB of data
# cansim::get_cansim("17100057")  
cpi <- cansim::get_cansim("18-10-0004-01")

Accessing CANSIM NDM product 18-10-0004 from Statistics Canada

Parsing data

cpi %>% filter(`Products and product groups` == "All-items") %>%
  count(GEO)

# A tibble: 30 × 2
   GEO                                                    n
   <chr>                                              <int>
 1 Alberta                                              527
 2 British Columbia                                     527
 3 Calgary, Alberta                                     619
 4 Canada                                              1303
 5 Charlottetown and Summerside, Prince Edward Island   583
 6 Edmonton, Alberta                                    619
 7 Halifax, Nova Scotia                                 619
 8 Iqaluit, Nunavut                                     236
 9 Manitoba                                             527
10 Montréal, Quebec                                     619
# … with 20 more rows
# ℹ Use `print(n = ...)` to see more rows
…
